// Jest Snapshot v1, https://goo.gl/fbAQLP

exports[`renders correctly 1`] = `
<Root>
  <Provider
    store={
      Object {
        "dispatch": [Function],
        "getState": [Function],
        "replaceReducer": [Function],
        "subscribe": [Function],
        Symbol(observable): [Function],
      }
    }
  >
    <ReduxForm>
      <Connect(Form(Connect(ForgotPasswordRequest)))
        destroyOnUnmount={true}
        enableReinitialize={false}
        forceUnregisterOnUnmount={false}
        form="resetPasswordRequest"
        getFormState={[Function]}
        keepDirtyOnReinitialize={false}
        persistentSubmitErrors={false}
        pure={true}
        shouldAsyncValidate={[Function]}
        shouldError={[Function]}
        shouldValidate={[Function]}
        shouldWarn={[Function]}
        touchOnBlur={true}
        touchOnChange={false}
        updateUnregisteredFields={false}
        validate={[Function]}
      >
        <Form(Connect(ForgotPasswordRequest))
          anyTouched={false}
          array={
            Object {
              "insert": [Function],
              "move": [Function],
              "pop": [Function],
              "push": [Function],
              "remove": [Function],
              "removeAll": [Function],
              "shift": [Function],
              "splice": [Function],
              "swap": [Function],
              "unshift": [Function],
            }
          }
          arrayInsert={[Function]}
          arrayMove={[Function]}
          arrayPop={[Function]}
          arrayPush={[Function]}
          arrayRemove={[Function]}
          arrayRemoveAll={[Function]}
          arrayShift={[Function]}
          arraySplice={[Function]}
          arraySwap={[Function]}
          arrayUnshift={[Function]}
          asyncValidating={false}
          autofill={[Function]}
          blur={[Function]}
          change={[Function]}
          clearAsyncError={[Function]}
          clearFields={[Function]}
          clearSubmit={[Function]}
          clearSubmitErrors={[Function]}
          destroy={[Function]}
          destroyOnUnmount={true}
          dirty={false}
          dispatch={[Function]}
          enableReinitialize={false}
          focus={[Function]}
          forceUnregisterOnUnmount={false}
          form="resetPasswordRequest"
          getFormState={[Function]}
          initialize={[Function]}
          initialized={false}
          invalid={true}
          keepDirtyOnReinitialize={false}
          persistentSubmitErrors={false}
          pristine={true}
          pure={true}
          registerField={[Function]}
          registeredFields={
            Object {
              "email": Object {
                "count": 1,
                "name": "email",
                "type": "Field",
              },
            }
          }
          reset={[Function]}
          resetSection={[Function]}
          setSubmitFailed={[Function]}
          setSubmitSucceeded={[Function]}
          shouldAsyncValidate={[Function]}
          shouldError={[Function]}
          shouldValidate={[Function]}
          shouldWarn={[Function]}
          startAsyncValidation={[Function]}
          startSubmit={[Function]}
          stopAsyncValidation={[Function]}
          stopSubmit={[Function]}
          submit={[Function]}
          submitFailed={false}
          submitSucceeded={false}
          submitting={false}
          syncErrors={
            Object {
              "email": "Enter a email",
            }
          }
          syncWarnings={Object {}}
          touch={[Function]}
          touchOnBlur={true}
          touchOnChange={false}
          unregisterField={[Function]}
          untouch={[Function]}
          updateSyncErrors={[Function]}
          updateSyncWarnings={[Function]}
          updateUnregisteredFields={false}
          valid={false}
          validExceptSubmit={false}
          validate={[Function]}
          values={Object {}}
        >
          <Connect(ForgotPasswordRequest)
            anyTouched={false}
            array={
              Object {
                "insert": [Function],
                "move": [Function],
                "pop": [Function],
                "push": [Function],
                "remove": [Function],
                "removeAll": [Function],
                "shift": [Function],
                "splice": [Function],
                "swap": [Function],
                "unshift": [Function],
              }
            }
            asyncValidate={[Function]}
            asyncValidating={false}
            autofill={[Function]}
            blur={[Function]}
            change={[Function]}
            clearAsyncError={[Function]}
            clearFields={[Function]}
            clearSubmit={[Function]}
            clearSubmitErrors={[Function]}
            destroy={[Function]}
            dirty={false}
            dispatch={[Function]}
            form="resetPasswordRequest"
            handleSubmit={[Function]}
            initialize={[Function]}
            initialized={false}
            invalid={true}
            pristine={true}
            pure={true}
            reset={[Function]}
            resetSection={[Function]}
            submit={[Function]}
            submitFailed={false}
            submitSucceeded={false}
            submitting={false}
            touch={[Function]}
            untouch={[Function]}
            valid={false}
            validate={[Function]}
          >
            <ForgotPasswordRequest
              anyTouched={false}
              array={
                Object {
                  "insert": [Function],
                  "move": [Function],
                  "pop": [Function],
                  "push": [Function],
                  "remove": [Function],
                  "removeAll": [Function],
                  "shift": [Function],
                  "splice": [Function],
                  "swap": [Function],
                  "unshift": [Function],
                }
              }
              asyncValidate={[Function]}
              asyncValidating={false}
              autofill={[Function]}
              blur={[Function]}
              change={[Function]}
              clearAsyncError={[Function]}
              clearFields={[Function]}
              clearSubmit={[Function]}
              clearSubmitErrors={[Function]}
              destroy={[Function]}
              dirty={false}
              dispatch={[Function]}
              error=""
              forgotPasswordRequest={[Function]}
              form="resetPasswordRequest"
              handleSubmit={[Function]}
              initialize={[Function]}
              initialized={false}
              invalid={true}
              message=""
              pristine={true}
              pure={true}
              reset={[Function]}
              resetAuthMessages={[Function]}
              resetSection={[Function]}
              submit={[Function]}
              submitFailed={false}
              submitSucceeded={false}
              submitting={false}
              touch={[Function]}
              untouch={[Function]}
              valid={false}
              validate={[Function]}
            >
              <div>
                <form
                  className="form"
                  onSubmit={[Function]}
                >
                  <Field
                    component={[Function]}
                    label="Email"
                    name="email"
                    type="text"
                  >
                    <Connect(ConnectedField)
                      _reduxForm={
                        Object {
                          "anyTouched": false,
                          "array": Object {
                            "insert": [Function],
                            "move": [Function],
                            "pop": [Function],
                            "push": [Function],
                            "remove": [Function],
                            "removeAll": [Function],
                            "shift": [Function],
                            "splice": [Function],
                            "swap": [Function],
                            "unshift": [Function],
                          },
                          "arrayInsert": [Function],
                          "arrayMove": [Function],
                          "arrayPop": [Function],
                          "arrayPush": [Function],
                          "arrayRemove": [Function],
                          "arrayRemoveAll": [Function],
                          "arrayShift": [Function],
                          "arraySplice": [Function],
                          "arraySwap": [Function],
                          "arrayUnshift": [Function],
                          "asyncErrors": undefined,
                          "asyncValidate": [Function],
                          "asyncValidating": false,
                          "autofill": [Function],
                          "blur": [Function],
                          "change": [Function],
                          "clearAsyncError": [Function],
                          "clearFields": [Function],
                          "clearSubmit": [Function],
                          "clearSubmitErrors": [Function],
                          "destroy": [Function],
                          "destroyOnUnmount": true,
                          "dirty": false,
                          "dispatch": [Function],
                          "enableReinitialize": false,
                          "error": undefined,
                          "focus": [Function],
                          "forceUnregisterOnUnmount": false,
                          "form": "resetPasswordRequest",
                          "getFormState": [Function],
                          "getValues": [Function],
                          "initialValues": undefined,
                          "initialize": [Function],
                          "initialized": false,
                          "invalid": false,
                          "keepDirtyOnReinitialize": false,
                          "persistentSubmitErrors": false,
                          "pristine": true,
                          "pure": true,
                          "register": [Function],
                          "registerField": [Function],
                          "registerInnerOnSubmit": [Function],
                          "registeredFields": undefined,
                          "reset": [Function],
                          "resetSection": [Function],
                          "sectionPrefix": undefined,
                          "setSubmitFailed": [Function],
                          "setSubmitSucceeded": [Function],
                          "shouldAsyncValidate": [Function],
                          "shouldError": [Function],
                          "shouldValidate": [Function],
                          "shouldWarn": [Function],
                          "startAsyncValidation": [Function],
                          "startSubmit": [Function],
                          "stopAsyncValidation": [Function],
                          "stopSubmit": [Function],
                          "submit": [Function],
                          "submitFailed": false,
                          "submitSucceeded": false,
                          "submitting": false,
                          "syncErrors": Object {},
                          "syncWarnings": Object {},
                          "touch": [Function],
                          "touchOnBlur": true,
                          "touchOnChange": false,
                          "triggerSubmit": undefined,
                          "unregister": [Function],
                          "unregisterField": [Function],
                          "untouch": [Function],
                          "updateSyncErrors": [Function],
                          "updateSyncWarnings": [Function],
                          "updateUnregisteredFields": false,
                          "valid": true,
                          "validExceptSubmit": true,
                          "validate": [Function],
                          "values": Object {},
                          "warning": undefined,
                        }
                      }
                      component={[Function]}
                      label="Email"
                      name="email"
                      normalize={[Function]}
                      type="text"
                    >
                      <ConnectedField
                        _reduxForm={
                          Object {
                            "anyTouched": false,
                            "array": Object {
                              "insert": [Function],
                              "move": [Function],
                              "pop": [Function],
                              "push": [Function],
                              "remove": [Function],
                              "removeAll": [Function],
                              "shift": [Function],
                              "splice": [Function],
                              "swap": [Function],
                              "unshift": [Function],
                            },
                            "arrayInsert": [Function],
                            "arrayMove": [Function],
                            "arrayPop": [Function],
                            "arrayPush": [Function],
                            "arrayRemove": [Function],
                            "arrayRemoveAll": [Function],
                            "arrayShift": [Function],
                            "arraySplice": [Function],
                            "arraySwap": [Function],
                            "arrayUnshift": [Function],
                            "asyncErrors": undefined,
                            "asyncValidate": [Function],
                            "asyncValidating": false,
                            "autofill": [Function],
                            "blur": [Function],
                            "change": [Function],
                            "clearAsyncError": [Function],
                            "clearFields": [Function],
                            "clearSubmit": [Function],
                            "clearSubmitErrors": [Function],
                            "destroy": [Function],
                            "destroyOnUnmount": true,
                            "dirty": false,
                            "dispatch": [Function],
                            "enableReinitialize": false,
                            "error": undefined,
                            "focus": [Function],
                            "forceUnregisterOnUnmount": false,
                            "form": "resetPasswordRequest",
                            "getFormState": [Function],
                            "getValues": [Function],
                            "initialValues": undefined,
                            "initialize": [Function],
                            "initialized": false,
                            "invalid": false,
                            "keepDirtyOnReinitialize": false,
                            "persistentSubmitErrors": false,
                            "pristine": true,
                            "pure": true,
                            "register": [Function],
                            "registerField": [Function],
                            "registerInnerOnSubmit": [Function],
                            "registeredFields": undefined,
                            "reset": [Function],
                            "resetSection": [Function],
                            "sectionPrefix": undefined,
                            "setSubmitFailed": [Function],
                            "setSubmitSucceeded": [Function],
                            "shouldAsyncValidate": [Function],
                            "shouldError": [Function],
                            "shouldValidate": [Function],
                            "shouldWarn": [Function],
                            "startAsyncValidation": [Function],
                            "startSubmit": [Function],
                            "stopAsyncValidation": [Function],
                            "stopSubmit": [Function],
                            "submit": [Function],
                            "submitFailed": false,
                            "submitSucceeded": false,
                            "submitting": false,
                            "syncErrors": Object {},
                            "syncWarnings": Object {},
                            "touch": [Function],
                            "touchOnBlur": true,
                            "touchOnChange": false,
                            "triggerSubmit": undefined,
                            "unregister": [Function],
                            "unregisterField": [Function],
                            "untouch": [Function],
                            "updateSyncErrors": [Function],
                            "updateSyncWarnings": [Function],
                            "updateUnregisteredFields": false,
                            "valid": true,
                            "validExceptSubmit": true,
                            "validate": [Function],
                            "values": Object {},
                            "warning": undefined,
                          }
                        }
                        asyncValidating={false}
                        component={[Function]}
                        dirty={false}
                        dispatch={[Function]}
                        label="Email"
                        name="email"
                        normalize={[Function]}
                        pristine={true}
                        syncError="Enter a email"
                        type="text"
                      >
                        <Component
                          input={
                            Object {
                              "name": "email",
                              "onBlur": [Function],
                              "onChange": [Function],
                              "onDragStart": [Function],
                              "onDrop": [Function],
                              "onFocus": [Function],
                              "value": "",
                            }
                          }
                          label="Email"
                          meta={
                            Object {
                              "active": false,
                              "asyncValidating": false,
                              "autofilled": false,
                              "dirty": false,
                              "dispatch": [Function],
                              "error": "Enter a email",
                              "form": "resetPasswordRequest",
                              "initial": undefined,
                              "invalid": true,
                              "pristine": true,
                              "submitFailed": false,
                              "submitting": false,
                              "touched": false,
                              "valid": false,
                              "visited": false,
                              "warning": undefined,
                            }
                          }
                          type="text"
                        >
                          <div
                            className="form__input"
                          >
                            <TextField
                              error={false}
                              fullWidth={true}
                              label="Email"
                              name="email"
                              onBlur={[Function]}
                              onChange={[Function]}
                              onDragStart={[Function]}
                              onDrop={[Function]}
                              onFocus={[Function]}
                              placeholder="Email"
                              required={false}
                              select={false}
                              type="text"
                              value=""
                            >
                              <WithStyles(FormControl)
                                error={false}
                                fullWidth={true}
                                onDragStart={[Function]}
                                onDrop={[Function]}
                                required={false}
                              >
                                <FormControl
                                  classes={
                                    Object {
                                      "fullWidth": "MuiFormControl-fullWidth-4",
                                      "marginDense": "MuiFormControl-marginDense-3",
                                      "marginNormal": "MuiFormControl-marginNormal-2",
                                      "root": "MuiFormControl-root-1",
                                    }
                                  }
                                  component="div"
                                  disabled={false}
                                  error={false}
                                  fullWidth={true}
                                  margin="none"
                                  onDragStart={[Function]}
                                  onDrop={[Function]}
                                  required={false}
                                >
                                  <div
                                    className="MuiFormControl-root-1 MuiFormControl-fullWidth-4"
                                    onDragStart={[Function]}
                                    onDrop={[Function]}
                                  >
                                    <WithStyles(InputLabel)>
                                      <InputLabel
                                        classes={
                                          Object {
                                            "animated": "MuiInputLabel-animated-9",
                                            "formControl": "MuiInputLabel-formControl-6",
                                            "marginDense": "MuiInputLabel-marginDense-7",
                                            "root": "MuiInputLabel-root-5",
                                            "shrink": "MuiInputLabel-shrink-8",
                                          }
                                        }
                                        disableAnimation={false}
                                      >
                                        <WithStyles(FormLabel)
                                          className="MuiInputLabel-root-5 MuiInputLabel-formControl-6 MuiInputLabel-animated-9"
                                          data-shrink={false}
                                        >
                                          <FormLabel
                                            className="MuiInputLabel-root-5 MuiInputLabel-formControl-6 MuiInputLabel-animated-9"
                                            classes={
                                              Object {
                                                "asterisk": "MuiFormLabel-asterisk-16",
                                                "disabled": "MuiFormLabel-disabled-12",
                                                "error": "MuiFormLabel-error-13",
                                                "filled": "MuiFormLabel-filled-14",
                                                "focused": "MuiFormLabel-focused-11",
                                                "required": "MuiFormLabel-required-15",
                                                "root": "MuiFormLabel-root-10",
                                              }
                                            }
                                            component="label"
                                            data-shrink={false}
                                          >
                                            <label
                                              className="MuiFormLabel-root-10 MuiInputLabel-root-5 MuiInputLabel-formControl-6 MuiInputLabel-animated-9"
                                              data-shrink={false}
                                            >
                                              Email
                                            </label>
                                          </FormLabel>
                                        </WithStyles(FormLabel)>
                                      </InputLabel>
                                    </WithStyles(InputLabel)>
                                    <WithStyles(Input)
                                      fullWidth={true}
                                      name="email"
                                      onBlur={[Function]}
                                      onChange={[Function]}
                                      onFocus={[Function]}
                                      placeholder="Email"
                                      type="text"
                                      value=""
                                    >
                                      <Input
                                        classes={
                                          Object {
                                            "disabled": "MuiInput-disabled-20",
                                            "error": "MuiInput-error-22",
                                            "focused": "MuiInput-focused-19",
                                            "formControl": "MuiInput-formControl-18",
                                            "fullWidth": "MuiInput-fullWidth-24",
                                            "input": "MuiInput-input-25",
                                            "inputMarginDense": "MuiInput-inputMarginDense-26",
                                            "inputMultiline": "MuiInput-inputMultiline-27",
                                            "inputType": "MuiInput-inputType-28",
                                            "inputTypeSearch": "MuiInput-inputTypeSearch-29",
                                            "multiline": "MuiInput-multiline-23",
                                            "root": "MuiInput-root-17",
                                            "underline": "MuiInput-underline-21",
                                          }
                                        }
                                        disableUnderline={false}
                                        fullWidth={true}
                                        multiline={false}
                                        name="email"
                                        onBlur={[Function]}
                                        onChange={[Function]}
                                        onFocus={[Function]}
                                        placeholder="Email"
                                        type="text"
                                        value=""
                                      >
                                        <div
                                          className="MuiInput-root-17 MuiInput-fullWidth-24 MuiInput-formControl-18 MuiInput-underline-21"
                                        >
                                          <input
                                            aria-invalid={false}
                                            className="MuiInput-input-25"
                                            disabled={false}
                                            name="email"
                                            onBlur={[Function]}
                                            onChange={[Function]}
                                            onFocus={[Function]}
                                            placeholder="Email"
                                            required={false}
                                            type="text"
                                            value=""
                                          />
                                        </div>
                                      </Input>
                                    </WithStyles(Input)>
                                  </div>
                                </FormControl>
                              </WithStyles(FormControl)>
                            </TextField>
                            <div
                              className="form__error"
                            />
                          </div>
                        </Component>
                      </ConnectedField>
                    </Connect(ConnectedField)>
                  </Field>
                  <div
                    className="form__button"
                  >
                    <div
                      className="marginBottomMedium"
                      style={
                        Object {
                          "height": "25px",
                        }
                      }
                    />
                    <WithStyles(Button)
                      color="primary"
                      disabled={true}
                      type="submit"
                      variant="contained"
                    >
                      <Button
                        classes={
                          Object {
                            "colorInherit": "MuiButton-colorInherit-51",
                            "contained": "MuiButton-contained-41",
                            "containedPrimary": "MuiButton-containedPrimary-42",
                            "containedSecondary": "MuiButton-containedSecondary-43",
                            "disabled": "MuiButton-disabled-50",
                            "extendedFab": "MuiButton-extendedFab-48",
                            "fab": "MuiButton-fab-47",
                            "flat": "MuiButton-flat-35",
                            "flatPrimary": "MuiButton-flatPrimary-36",
                            "flatSecondary": "MuiButton-flatSecondary-37",
                            "focusVisible": "MuiButton-focusVisible-49",
                            "fullWidth": "MuiButton-fullWidth-55",
                            "label": "MuiButton-label-31",
                            "mini": "MuiButton-mini-52",
                            "outlined": "MuiButton-outlined-38",
                            "outlinedPrimary": "MuiButton-outlinedPrimary-39",
                            "outlinedSecondary": "MuiButton-outlinedSecondary-40",
                            "raised": "MuiButton-raised-44",
                            "raisedPrimary": "MuiButton-raisedPrimary-45",
                            "raisedSecondary": "MuiButton-raisedSecondary-46",
                            "root": "MuiButton-root-30",
                            "sizeLarge": "MuiButton-sizeLarge-54",
                            "sizeSmall": "MuiButton-sizeSmall-53",
                            "text": "MuiButton-text-32",
                            "textPrimary": "MuiButton-textPrimary-33",
                            "textSecondary": "MuiButton-textSecondary-34",
                          }
                        }
                        color="primary"
                        component="button"
                        disableFocusRipple={false}
                        disabled={true}
                        fullWidth={false}
                        mini={false}
                        size="medium"
                        type="submit"
                        variant="contained"
                      >
                        <WithStyles(ButtonBase)
                          className="MuiButton-root-30 MuiButton-contained-41 MuiButton-containedPrimary-42 MuiButton-raised-44 MuiButton-raisedPrimary-45 MuiButton-disabled-50"
                          component="button"
                          disabled={true}
                          focusRipple={true}
                          focusVisibleClassName="MuiButton-focusVisible-49"
                          type="submit"
                        >
                          <ButtonBase
                            centerRipple={false}
                            className="MuiButton-root-30 MuiButton-contained-41 MuiButton-containedPrimary-42 MuiButton-raised-44 MuiButton-raisedPrimary-45 MuiButton-disabled-50"
                            classes={
                              Object {
                                "disabled": "MuiButtonBase-disabled-57",
                                "focusVisible": "MuiButtonBase-focusVisible-58",
                                "root": "MuiButtonBase-root-56",
                              }
                            }
                            component="button"
                            disableRipple={false}
                            disableTouchRipple={false}
                            disabled={true}
                            focusRipple={true}
                            focusVisibleClassName="MuiButton-focusVisible-49"
                            tabIndex="0"
                            type="submit"
                          >
                            <button
                              className="MuiButtonBase-root-56 MuiButtonBase-disabled-57 MuiButton-root-30 MuiButton-contained-41 MuiButton-containedPrimary-42 MuiButton-raised-44 MuiButton-raisedPrimary-45 MuiButton-disabled-50"
                              disabled={true}
                              onBlur={[Function]}
                              onFocus={[Function]}
                              onKeyDown={[Function]}
                              onKeyUp={[Function]}
                              onMouseDown={[Function]}
                              onMouseLeave={[Function]}
                              onMouseUp={[Function]}
                              onTouchEnd={[Function]}
                              onTouchMove={[Function]}
                              onTouchStart={[Function]}
                              tabIndex="-1"
                              type="submit"
                            >
                              <span
                                className="MuiButton-label-31"
                              >
                                SUBMIT
                              </span>
                            </button>
                          </ButtonBase>
                        </WithStyles(ButtonBase)>
                      </Button>
                    </WithStyles(Button)>
                  </div>
                </form>
              </div>
            </ForgotPasswordRequest>
          </Connect(ForgotPasswordRequest)>
        </Form(Connect(ForgotPasswordRequest))>
      </Connect(Form(Connect(ForgotPasswordRequest)))>
    </ReduxForm>
  </Provider>
</Root>
`;

exports[`shows error if email is not present 1`] = `
<Root>
  <Provider
    store={
      Object {
        "dispatch": [Function],
        "getState": [Function],
        "replaceReducer": [Function],
        "subscribe": [Function],
        Symbol(observable): [Function],
      }
    }
  >
    <ReduxForm>
      <Connect(Form(Connect(ForgotPasswordRequest)))
        destroyOnUnmount={true}
        enableReinitialize={false}
        forceUnregisterOnUnmount={false}
        form="resetPasswordRequest"
        getFormState={[Function]}
        keepDirtyOnReinitialize={false}
        persistentSubmitErrors={false}
        pure={true}
        shouldAsyncValidate={[Function]}
        shouldError={[Function]}
        shouldValidate={[Function]}
        shouldWarn={[Function]}
        touchOnBlur={true}
        touchOnChange={false}
        updateUnregisteredFields={false}
        validate={[Function]}
      >
        <Form(Connect(ForgotPasswordRequest))
          anyTouched={true}
          array={
            Object {
              "insert": [Function],
              "move": [Function],
              "pop": [Function],
              "push": [Function],
              "remove": [Function],
              "removeAll": [Function],
              "shift": [Function],
              "splice": [Function],
              "swap": [Function],
              "unshift": [Function],
            }
          }
          arrayInsert={[Function]}
          arrayMove={[Function]}
          arrayPop={[Function]}
          arrayPush={[Function]}
          arrayRemove={[Function]}
          arrayRemoveAll={[Function]}
          arrayShift={[Function]}
          arraySplice={[Function]}
          arraySwap={[Function]}
          arrayUnshift={[Function]}
          asyncValidating={false}
          autofill={[Function]}
          blur={[Function]}
          change={[Function]}
          clearAsyncError={[Function]}
          clearFields={[Function]}
          clearSubmit={[Function]}
          clearSubmitErrors={[Function]}
          destroy={[Function]}
          destroyOnUnmount={true}
          dirty={false}
          dispatch={[Function]}
          enableReinitialize={false}
          focus={[Function]}
          forceUnregisterOnUnmount={false}
          form="resetPasswordRequest"
          getFormState={[Function]}
          initialize={[Function]}
          initialized={false}
          invalid={true}
          keepDirtyOnReinitialize={false}
          persistentSubmitErrors={false}
          pristine={true}
          pure={true}
          registerField={[Function]}
          registeredFields={
            Object {
              "email": Object {
                "count": 1,
                "name": "email",
                "type": "Field",
              },
            }
          }
          reset={[Function]}
          resetSection={[Function]}
          setSubmitFailed={[Function]}
          setSubmitSucceeded={[Function]}
          shouldAsyncValidate={[Function]}
          shouldError={[Function]}
          shouldValidate={[Function]}
          shouldWarn={[Function]}
          startAsyncValidation={[Function]}
          startSubmit={[Function]}
          stopAsyncValidation={[Function]}
          stopSubmit={[Function]}
          submit={[Function]}
          submitFailed={false}
          submitSucceeded={false}
          submitting={false}
          syncErrors={
            Object {
              "email": "Enter a email",
            }
          }
          syncWarnings={Object {}}
          touch={[Function]}
          touchOnBlur={true}
          touchOnChange={false}
          unregisterField={[Function]}
          untouch={[Function]}
          updateSyncErrors={[Function]}
          updateSyncWarnings={[Function]}
          updateUnregisteredFields={false}
          valid={false}
          validExceptSubmit={false}
          validate={[Function]}
          values={Object {}}
        >
          <Connect(ForgotPasswordRequest)
            anyTouched={true}
            array={
              Object {
                "insert": [Function],
                "move": [Function],
                "pop": [Function],
                "push": [Function],
                "remove": [Function],
                "removeAll": [Function],
                "shift": [Function],
                "splice": [Function],
                "swap": [Function],
                "unshift": [Function],
              }
            }
            asyncValidate={[Function]}
            asyncValidating={false}
            autofill={[Function]}
            blur={[Function]}
            change={[Function]}
            clearAsyncError={[Function]}
            clearFields={[Function]}
            clearSubmit={[Function]}
            clearSubmitErrors={[Function]}
            destroy={[Function]}
            dirty={false}
            dispatch={[Function]}
            form="resetPasswordRequest"
            handleSubmit={[Function]}
            initialize={[Function]}
            initialized={false}
            invalid={true}
            pristine={true}
            pure={true}
            reset={[Function]}
            resetSection={[Function]}
            submit={[Function]}
            submitFailed={false}
            submitSucceeded={false}
            submitting={false}
            touch={[Function]}
            untouch={[Function]}
            valid={false}
            validate={[Function]}
          >
            <ForgotPasswordRequest
              anyTouched={true}
              array={
                Object {
                  "insert": [Function],
                  "move": [Function],
                  "pop": [Function],
                  "push": [Function],
                  "remove": [Function],
                  "removeAll": [Function],
                  "shift": [Function],
                  "splice": [Function],
                  "swap": [Function],
                  "unshift": [Function],
                }
              }
              asyncValidate={[Function]}
              asyncValidating={false}
              autofill={[Function]}
              blur={[Function]}
              change={[Function]}
              clearAsyncError={[Function]}
              clearFields={[Function]}
              clearSubmit={[Function]}
              clearSubmitErrors={[Function]}
              destroy={[Function]}
              dirty={false}
              dispatch={[Function]}
              error=""
              forgotPasswordRequest={[Function]}
              form="resetPasswordRequest"
              handleSubmit={[Function]}
              initialize={[Function]}
              initialized={false}
              invalid={true}
              message=""
              pristine={true}
              pure={true}
              reset={[Function]}
              resetAuthMessages={[Function]}
              resetSection={[Function]}
              submit={[Function]}
              submitFailed={false}
              submitSucceeded={false}
              submitting={false}
              touch={[Function]}
              untouch={[Function]}
              valid={false}
              validate={[Function]}
            >
              <div>
                <form
                  className="form"
                  onSubmit={[Function]}
                >
                  <Field
                    component={[Function]}
                    label="Email"
                    name="email"
                    type="text"
                  >
                    <Connect(ConnectedField)
                      _reduxForm={
                        Object {
                          "anyTouched": false,
                          "array": Object {
                            "insert": [Function],
                            "move": [Function],
                            "pop": [Function],
                            "push": [Function],
                            "remove": [Function],
                            "removeAll": [Function],
                            "shift": [Function],
                            "splice": [Function],
                            "swap": [Function],
                            "unshift": [Function],
                          },
                          "arrayInsert": [Function],
                          "arrayMove": [Function],
                          "arrayPop": [Function],
                          "arrayPush": [Function],
                          "arrayRemove": [Function],
                          "arrayRemoveAll": [Function],
                          "arrayShift": [Function],
                          "arraySplice": [Function],
                          "arraySwap": [Function],
                          "arrayUnshift": [Function],
                          "asyncErrors": undefined,
                          "asyncValidate": [Function],
                          "asyncValidating": false,
                          "autofill": [Function],
                          "blur": [Function],
                          "change": [Function],
                          "clearAsyncError": [Function],
                          "clearFields": [Function],
                          "clearSubmit": [Function],
                          "clearSubmitErrors": [Function],
                          "destroy": [Function],
                          "destroyOnUnmount": true,
                          "dirty": false,
                          "dispatch": [Function],
                          "enableReinitialize": false,
                          "error": undefined,
                          "focus": [Function],
                          "forceUnregisterOnUnmount": false,
                          "form": "resetPasswordRequest",
                          "getFormState": [Function],
                          "getValues": [Function],
                          "initialValues": undefined,
                          "initialize": [Function],
                          "initialized": false,
                          "invalid": false,
                          "keepDirtyOnReinitialize": false,
                          "persistentSubmitErrors": false,
                          "pristine": true,
                          "pure": true,
                          "register": [Function],
                          "registerField": [Function],
                          "registerInnerOnSubmit": [Function],
                          "registeredFields": undefined,
                          "reset": [Function],
                          "resetSection": [Function],
                          "sectionPrefix": undefined,
                          "setSubmitFailed": [Function],
                          "setSubmitSucceeded": [Function],
                          "shouldAsyncValidate": [Function],
                          "shouldError": [Function],
                          "shouldValidate": [Function],
                          "shouldWarn": [Function],
                          "startAsyncValidation": [Function],
                          "startSubmit": [Function],
                          "stopAsyncValidation": [Function],
                          "stopSubmit": [Function],
                          "submit": [Function],
                          "submitFailed": false,
                          "submitSucceeded": false,
                          "submitting": false,
                          "syncErrors": Object {},
                          "syncWarnings": Object {},
                          "touch": [Function],
                          "touchOnBlur": true,
                          "touchOnChange": false,
                          "triggerSubmit": undefined,
                          "unregister": [Function],
                          "unregisterField": [Function],
                          "untouch": [Function],
                          "updateSyncErrors": [Function],
                          "updateSyncWarnings": [Function],
                          "updateUnregisteredFields": false,
                          "valid": true,
                          "validExceptSubmit": true,
                          "validate": [Function],
                          "values": Object {},
                          "warning": undefined,
                        }
                      }
                      component={[Function]}
                      label="Email"
                      name="email"
                      normalize={[Function]}
                      type="text"
                    >
                      <ConnectedField
                        _reduxForm={
                          Object {
                            "anyTouched": false,
                            "array": Object {
                              "insert": [Function],
                              "move": [Function],
                              "pop": [Function],
                              "push": [Function],
                              "remove": [Function],
                              "removeAll": [Function],
                              "shift": [Function],
                              "splice": [Function],
                              "swap": [Function],
                              "unshift": [Function],
                            },
                            "arrayInsert": [Function],
                            "arrayMove": [Function],
                            "arrayPop": [Function],
                            "arrayPush": [Function],
                            "arrayRemove": [Function],
                            "arrayRemoveAll": [Function],
                            "arrayShift": [Function],
                            "arraySplice": [Function],
                            "arraySwap": [Function],
                            "arrayUnshift": [Function],
                            "asyncErrors": undefined,
                            "asyncValidate": [Function],
                            "asyncValidating": false,
                            "autofill": [Function],
                            "blur": [Function],
                            "change": [Function],
                            "clearAsyncError": [Function],
                            "clearFields": [Function],
                            "clearSubmit": [Function],
                            "clearSubmitErrors": [Function],
                            "destroy": [Function],
                            "destroyOnUnmount": true,
                            "dirty": false,
                            "dispatch": [Function],
                            "enableReinitialize": false,
                            "error": undefined,
                            "focus": [Function],
                            "forceUnregisterOnUnmount": false,
                            "form": "resetPasswordRequest",
                            "getFormState": [Function],
                            "getValues": [Function],
                            "initialValues": undefined,
                            "initialize": [Function],
                            "initialized": false,
                            "invalid": false,
                            "keepDirtyOnReinitialize": false,
                            "persistentSubmitErrors": false,
                            "pristine": true,
                            "pure": true,
                            "register": [Function],
                            "registerField": [Function],
                            "registerInnerOnSubmit": [Function],
                            "registeredFields": undefined,
                            "reset": [Function],
                            "resetSection": [Function],
                            "sectionPrefix": undefined,
                            "setSubmitFailed": [Function],
                            "setSubmitSucceeded": [Function],
                            "shouldAsyncValidate": [Function],
                            "shouldError": [Function],
                            "shouldValidate": [Function],
                            "shouldWarn": [Function],
                            "startAsyncValidation": [Function],
                            "startSubmit": [Function],
                            "stopAsyncValidation": [Function],
                            "stopSubmit": [Function],
                            "submit": [Function],
                            "submitFailed": false,
                            "submitSucceeded": false,
                            "submitting": false,
                            "syncErrors": Object {},
                            "syncWarnings": Object {},
                            "touch": [Function],
                            "touchOnBlur": true,
                            "touchOnChange": false,
                            "triggerSubmit": undefined,
                            "unregister": [Function],
                            "unregisterField": [Function],
                            "untouch": [Function],
                            "updateSyncErrors": [Function],
                            "updateSyncWarnings": [Function],
                            "updateUnregisteredFields": false,
                            "valid": true,
                            "validExceptSubmit": true,
                            "validate": [Function],
                            "values": Object {},
                            "warning": undefined,
                          }
                        }
                        asyncValidating={false}
                        component={[Function]}
                        dirty={false}
                        dispatch={[Function]}
                        label="Email"
                        name="email"
                        normalize={[Function]}
                        pristine={true}
                        state={
                          Object {
                            "touched": true,
                          }
                        }
                        syncError="Enter a email"
                        type="text"
                      >
                        <Component
                          input={
                            Object {
                              "name": "email",
                              "onBlur": [Function],
                              "onChange": [Function],
                              "onDragStart": [Function],
                              "onDrop": [Function],
                              "onFocus": [Function],
                              "value": "",
                            }
                          }
                          label="Email"
                          meta={
                            Object {
                              "active": false,
                              "asyncValidating": false,
                              "autofilled": false,
                              "dirty": false,
                              "dispatch": [Function],
                              "error": "Enter a email",
                              "form": "resetPasswordRequest",
                              "initial": undefined,
                              "invalid": true,
                              "pristine": true,
                              "submitFailed": false,
                              "submitting": false,
                              "touched": true,
                              "valid": false,
                              "visited": false,
                              "warning": undefined,
                            }
                          }
                          type="text"
                        >
                          <div
                            className="form__input"
                          >
                            <TextField
                              error={true}
                              fullWidth={true}
                              label="Email"
                              name="email"
                              onBlur={[Function]}
                              onChange={[Function]}
                              onDragStart={[Function]}
                              onDrop={[Function]}
                              onFocus={[Function]}
                              placeholder="Email"
                              required={false}
                              select={false}
                              type="text"
                              value=""
                            >
                              <WithStyles(FormControl)
                                error={true}
                                fullWidth={true}
                                onDragStart={[Function]}
                                onDrop={[Function]}
                                required={false}
                              >
                                <FormControl
                                  classes={
                                    Object {
                                      "fullWidth": "MuiFormControl-fullWidth-62",
                                      "marginDense": "MuiFormControl-marginDense-61",
                                      "marginNormal": "MuiFormControl-marginNormal-60",
                                      "root": "MuiFormControl-root-59",
                                    }
                                  }
                                  component="div"
                                  disabled={false}
                                  error={true}
                                  fullWidth={true}
                                  margin="none"
                                  onDragStart={[Function]}
                                  onDrop={[Function]}
                                  required={false}
                                >
                                  <div
                                    className="MuiFormControl-root-59 MuiFormControl-fullWidth-62"
                                    onDragStart={[Function]}
                                    onDrop={[Function]}
                                  >
                                    <WithStyles(InputLabel)>
                                      <InputLabel
                                        classes={
                                          Object {
                                            "animated": "MuiInputLabel-animated-67",
                                            "formControl": "MuiInputLabel-formControl-64",
                                            "marginDense": "MuiInputLabel-marginDense-65",
                                            "root": "MuiInputLabel-root-63",
                                            "shrink": "MuiInputLabel-shrink-66",
                                          }
                                        }
                                        disableAnimation={false}
                                      >
                                        <WithStyles(FormLabel)
                                          className="MuiInputLabel-root-63 MuiInputLabel-formControl-64 MuiInputLabel-animated-67"
                                          data-shrink={false}
                                        >
                                          <FormLabel
                                            className="MuiInputLabel-root-63 MuiInputLabel-formControl-64 MuiInputLabel-animated-67"
                                            classes={
                                              Object {
                                                "asterisk": "MuiFormLabel-asterisk-74",
                                                "disabled": "MuiFormLabel-disabled-70",
                                                "error": "MuiFormLabel-error-71",
                                                "filled": "MuiFormLabel-filled-72",
                                                "focused": "MuiFormLabel-focused-69",
                                                "required": "MuiFormLabel-required-73",
                                                "root": "MuiFormLabel-root-68",
                                              }
                                            }
                                            component="label"
                                            data-shrink={false}
                                          >
                                            <label
                                              className="MuiFormLabel-root-68 MuiFormLabel-error-71 MuiInputLabel-root-63 MuiInputLabel-formControl-64 MuiInputLabel-animated-67"
                                              data-shrink={false}
                                            >
                                              Email
                                            </label>
                                          </FormLabel>
                                        </WithStyles(FormLabel)>
                                      </InputLabel>
                                    </WithStyles(InputLabel)>
                                    <WithStyles(Input)
                                      fullWidth={true}
                                      name="email"
                                      onBlur={[Function]}
                                      onChange={[Function]}
                                      onFocus={[Function]}
                                      placeholder="Email"
                                      type="text"
                                      value=""
                                    >
                                      <Input
                                        classes={
                                          Object {
                                            "disabled": "MuiInput-disabled-78",
                                            "error": "MuiInput-error-80",
                                            "focused": "MuiInput-focused-77",
                                            "formControl": "MuiInput-formControl-76",
                                            "fullWidth": "MuiInput-fullWidth-82",
                                            "input": "MuiInput-input-83",
                                            "inputMarginDense": "MuiInput-inputMarginDense-84",
                                            "inputMultiline": "MuiInput-inputMultiline-85",
                                            "inputType": "MuiInput-inputType-86",
                                            "inputTypeSearch": "MuiInput-inputTypeSearch-87",
                                            "multiline": "MuiInput-multiline-81",
                                            "root": "MuiInput-root-75",
                                            "underline": "MuiInput-underline-79",
                                          }
                                        }
                                        disableUnderline={false}
                                        fullWidth={true}
                                        multiline={false}
                                        name="email"
                                        onBlur={[Function]}
                                        onChange={[Function]}
                                        onFocus={[Function]}
                                        placeholder="Email"
                                        type="text"
                                        value=""
                                      >
                                        <div
                                          className="MuiInput-root-75 MuiInput-error-80 MuiInput-fullWidth-82 MuiInput-formControl-76 MuiInput-underline-79"
                                        >
                                          <input
                                            aria-invalid={true}
                                            className="MuiInput-input-83"
                                            disabled={false}
                                            name="email"
                                            onBlur={[Function]}
                                            onChange={[Function]}
                                            onFocus={[Function]}
                                            placeholder="Email"
                                            required={false}
                                            type="text"
                                            value=""
                                          />
                                        </div>
                                      </Input>
                                    </WithStyles(Input)>
                                  </div>
                                </FormControl>
                              </WithStyles(FormControl)>
                            </TextField>
                            <div
                              className="form__error"
                            >
                              Enter a email
                            </div>
                          </div>
                        </Component>
                      </ConnectedField>
                    </Connect(ConnectedField)>
                  </Field>
                  <div
                    className="form__button"
                  >
                    <div
                      className="marginBottomMedium"
                      style={
                        Object {
                          "height": "25px",
                        }
                      }
                    />
                    <WithStyles(Button)
                      color="primary"
                      disabled={true}
                      type="submit"
                      variant="contained"
                    >
                      <Button
                        classes={
                          Object {
                            "colorInherit": "MuiButton-colorInherit-109",
                            "contained": "MuiButton-contained-99",
                            "containedPrimary": "MuiButton-containedPrimary-100",
                            "containedSecondary": "MuiButton-containedSecondary-101",
                            "disabled": "MuiButton-disabled-108",
                            "extendedFab": "MuiButton-extendedFab-106",
                            "fab": "MuiButton-fab-105",
                            "flat": "MuiButton-flat-93",
                            "flatPrimary": "MuiButton-flatPrimary-94",
                            "flatSecondary": "MuiButton-flatSecondary-95",
                            "focusVisible": "MuiButton-focusVisible-107",
                            "fullWidth": "MuiButton-fullWidth-113",
                            "label": "MuiButton-label-89",
                            "mini": "MuiButton-mini-110",
                            "outlined": "MuiButton-outlined-96",
                            "outlinedPrimary": "MuiButton-outlinedPrimary-97",
                            "outlinedSecondary": "MuiButton-outlinedSecondary-98",
                            "raised": "MuiButton-raised-102",
                            "raisedPrimary": "MuiButton-raisedPrimary-103",
                            "raisedSecondary": "MuiButton-raisedSecondary-104",
                            "root": "MuiButton-root-88",
                            "sizeLarge": "MuiButton-sizeLarge-112",
                            "sizeSmall": "MuiButton-sizeSmall-111",
                            "text": "MuiButton-text-90",
                            "textPrimary": "MuiButton-textPrimary-91",
                            "textSecondary": "MuiButton-textSecondary-92",
                          }
                        }
                        color="primary"
                        component="button"
                        disableFocusRipple={false}
                        disabled={true}
                        fullWidth={false}
                        mini={false}
                        size="medium"
                        type="submit"
                        variant="contained"
                      >
                        <WithStyles(ButtonBase)
                          className="MuiButton-root-88 MuiButton-contained-99 MuiButton-containedPrimary-100 MuiButton-raised-102 MuiButton-raisedPrimary-103 MuiButton-disabled-108"
                          component="button"
                          disabled={true}
                          focusRipple={true}
                          focusVisibleClassName="MuiButton-focusVisible-107"
                          type="submit"
                        >
                          <ButtonBase
                            centerRipple={false}
                            className="MuiButton-root-88 MuiButton-contained-99 MuiButton-containedPrimary-100 MuiButton-raised-102 MuiButton-raisedPrimary-103 MuiButton-disabled-108"
                            classes={
                              Object {
                                "disabled": "MuiButtonBase-disabled-115",
                                "focusVisible": "MuiButtonBase-focusVisible-116",
                                "root": "MuiButtonBase-root-114",
                              }
                            }
                            component="button"
                            disableRipple={false}
                            disableTouchRipple={false}
                            disabled={true}
                            focusRipple={true}
                            focusVisibleClassName="MuiButton-focusVisible-107"
                            tabIndex="0"
                            type="submit"
                          >
                            <button
                              className="MuiButtonBase-root-114 MuiButtonBase-disabled-115 MuiButton-root-88 MuiButton-contained-99 MuiButton-containedPrimary-100 MuiButton-raised-102 MuiButton-raisedPrimary-103 MuiButton-disabled-108"
                              disabled={true}
                              onBlur={[Function]}
                              onFocus={[Function]}
                              onKeyDown={[Function]}
                              onKeyUp={[Function]}
                              onMouseDown={[Function]}
                              onMouseLeave={[Function]}
                              onMouseUp={[Function]}
                              onTouchEnd={[Function]}
                              onTouchMove={[Function]}
                              onTouchStart={[Function]}
                              tabIndex="-1"
                              type="submit"
                            >
                              <span
                                className="MuiButton-label-89"
                              >
                                SUBMIT
                              </span>
                            </button>
                          </ButtonBase>
                        </WithStyles(ButtonBase)>
                      </Button>
                    </WithStyles(Button)>
                  </div>
                </form>
              </div>
            </ForgotPasswordRequest>
          </Connect(ForgotPasswordRequest)>
        </Form(Connect(ForgotPasswordRequest))>
      </Connect(Form(Connect(ForgotPasswordRequest)))>
    </ReduxForm>
  </Provider>
</Root>
`;
